﻿A    B
---- ----
12.0 12.2
12.1 12.4
12.3 12.5
12.6 12.9
12.9 13.2
12.1 12.4
11.8 12.2
11.0 11.2
09.4 09.7
05.9 06.3
04.0 04.4
01.9 02.2
00.3 00.7
-00.2 00.1
-03.5 -03.1
-04.0 -03.8
-04.1 -03.8
-03.8 -03.3
-02.9 -02.6
-01.1 -00.1
